Sender,Receiver,Part Name,Percentage?,Shipment Size/Percentage,Time Between Shipments,Transit Time,Transit Time Standard Deviation,Shipment Yield
CarltonSensor,Toronto,n_abcs,FALSE,1325,30,7,1,1
CarltonSensor,Toronto,n_hccs,FALSE,250,30,7,1,1
CarltonSensor,Freiburg,n_abcs,FALSE,1000,30,7,1,1
CarltonSensor,Freiburg,n_hccs,FALSE,100,30,7,1,1
CarltonSensor,Dortmund,n_abcs,FALSE,1000,30,7,1,1
CarltonSensor,Dortmund,n_hccs,FALSE,100,30,7,1,1
CarltonSensor,Hamburg,n_abcs,FALSE,1000,30,7,1,1
CarltonSensor,Hamburg,n_hccs,FALSE,100,30,7,1,1
CarltonSensor,Zeuthen,n_abcs,FALSE,2000,30,7,1,1
CarltonSensor,Zeuthen,n_hccs,FALSE,400,30,7,1,1
CarltonSensor,Scandinavia,n_abcs,FALSE,1000,30,7,1,1
CarltonSensor,Scandinavia,n_hccs,FALSE,100,30,7,1,1
CarltonSensor,Toronto,n_r0_sensors,true,0.4375,30,7,1,1
CarltonSensor,Toronto,n_r3_sensors,true,0.4375,30,7,1,1
CarltonSensor,Vancouver,n_r1_sensors,true,0.4375,30,7,1,1
CarltonSensor,Vancouver,n_r2_sensors,true,0.4375,30,7,1,1
CarltonSensor,Vancouver,n_r4_sensors,true,0.4375,30,7,1,1
CarltonSensor,Vancouver,n_r5_sensors,true,0.4375,30,7,1,1
CarltonSensor,Freiburg,n_r1_sensors,true,0.28125,30,7,1,1
CarltonSensor,Freiburg,n_r3_sensors,true,0.5625,30,7,1,1
CarltonSensor,Freiburg,n_r4_sensors,true,0.28125,30,7,1,1
CarltonSensor,Dortmund,n_r2_sensors,true,0.5625,30,7,1,1
CarltonSensor,Dortmund,n_r5_sensors,true,0.28125,30,7,1,1
CarltonSensor,Australia,n_r1_sensors,true,0.28125,30,7,1,1
CarltonSensor,Australia,n_r4_sensors,true,0.28125,30,7,1,1
CarltonSensor,Zeuthen,n_r0_sensors,true,0.5625,30,7,1,1
CarltonSensor,Zeuthen,n_r5_sensors,true,0.28125,30,7,1,1
CzechSensor,Zeuthen,n_r0_sensors,true,0.5,30,7,1,1
CzechSensor,Zeuthen,n_r1_sensors,true,0.5,30,7,1,1
CzechSensor,Zeuthen,n_r3_sensors,true,0.5,30,7,1,1
CzechSensor,Zeuthen,n_r5_sensors,true,0.5,30,7,1,1
CzechSensor,Hamburg,n_r2_sensors,true,0.5,30,7,1,1
CzechSensor,Hamburg,n_r4_sensors,true,0.5,30,7,1,1
CzechSensor,Prague,n_r2_sensors,true,0.5,30,7,1,1
CzechSensor,Prague,n_r4_sensors,true,0.5,30,7,1,1
CzechSensor,Valencia,n_r0_sensors,true,0.5,30,7,1,1
CzechSensor,Valencia,n_r5_sensors,true,0.5,30,7,1,1
CzechSensor,Scandinavia,n_r1_sensors,true,0.5,30,7,1,1
CzechSensor,Scandinavia,n_r3_sensors,true,0.5,30,7,1,1
FreiburgPowerboard,Freiburg,n_r1_powerboards,true,0.140625,30,7,1,1
FreiburgPowerboard,Freiburg,n_r3_powerboards,true,0.28125,30,7,1,1
FreiburgPowerboard,Freiburg,n_r4_powerboards,true,0.140625,30,7,1,1
FreiburgPowerboard,Zeuthen,n_r0_powerboards,true,0.53125,30,7,1,1
FreiburgPowerboard,Zeuthen,n_r1_powerboards,true,0.25,30,7,1,1
FreiburgPowerboard,Zeuthen,n_r3_powerboards,true,0.25,30,7,1,1
FreiburgPowerboard,Zeuthen,n_r5_powerboards,true,0.390625,30,7,1,1
FreiburgPowerboard,Toronto,n_r0_powerboards,true,0.21875,30,7,1,1
FreiburgPowerboard,Toronto,n_r3_powerboards,true,0.21875,30,7,1,1
FreiburgPowerboard,Scandinavia,n_r1_powerboards,true,0.25,30,7,1,1
FreiburgPowerboard,Scandinavia,n_r3_powerboards,true,0.25,30,7,1,1
FreiburgPowerboard,Valencia,n_r0_powerboards,true,0.25,30,7,1,1
FreiburgPowerboard,Valencia,n_r5_powerboards,true,0.25,30,7,1,1
FreiburgPowerboard,Prague,n_r2_powerboards,true,0.25,30,7,1,1
FreiburgPowerboard,Prague,n_r4_powerboards,true,0.25,30,7,1,1
FreiburgPowerboard,Vancouver,n_r1_powerboards,true,0.21875,30,7,1,1
FreiburgPowerboard,Vancouver,n_r2_powerboards,true,0.21875,30,7,1,1
FreiburgPowerboard,Vancouver,n_r4_powerboards,true,0.21875,30,7,1,1
FreiburgPowerboard,Vancouver,n_r5_powerboards,true,0.21875,30,7,1,1
FreiburgPowerboard,Dortmund,n_r2_powerboards,true,0.28125,30,7,1,1
FreiburgPowerboard,Dortmund,n_r5_powerboards,true,0.140625,30,7,1,1
FreiburgPowerboard,Hamburg,n_r2_powerboards,true,0.25,30,7,1,1
FreiburgPowerboard,Hamburg,n_r4_powerboards,true,0.25,30,7,1,1
FreiburgPowerboard,Australia,n_r1_powerboards,true,0.140625,30,7,1,1
FreiburgPowerboard,Australia,n_r4_powerboards,true,0.140625,30,7,1,1
FreiburgBareHybrid,Freiburg,n_bare_r1h0,true,0.28125,30,7,1,1
FreiburgBareHybrid,Freiburg,n_bare_r1h1,true,0.28125,30,7,1,1
FreiburgBareHybrid,Freiburg,n_bare_r3h0,true,0.28125,30,7,1,1
FreiburgBareHybrid,Freiburg,n_bare_r3h1,true,0.28125,30,7,1,1
FreiburgBareHybrid,Freiburg,n_bare_r3h2,true,0.28125,30,7,1,1
FreiburgBareHybrid,Freiburg,n_bare_r3h3,true,0.28125,30,7,1,1
FreiburgBareHybrid,Freiburg,n_bare_r4h0,true,0.28125,30,7,1,1
FreiburgBareHybrid,Freiburg,n_bare_r4h1,true,0.28125,30,7,1,1
FreiburgBareHybrid,Zeuthen,n_bare_r0h0,true,0.53125,30,7,1,1
FreiburgBareHybrid,Zeuthen,n_bare_r0h1,true,0.53125,30,7,1,1
FreiburgBareHybrid,Zeuthen,n_bare_r1h0,true,0.25,30,7,1,1
FreiburgBareHybrid,Zeuthen,n_bare_r1h1,true,0.25,30,7,1,1
FreiburgBareHybrid,Zeuthen,n_bare_r3h0,true,0.25,30,7,1,1
FreiburgBareHybrid,Zeuthen,n_bare_r3h1,true,0.25,30,7,1,1
FreiburgBareHybrid,Zeuthen,n_bare_r3h2,true,0.25,30,7,1,1
FreiburgBareHybrid,Zeuthen,n_bare_r3h3,true,0.25,30,7,1,1
FreiburgBareHybrid,Zeuthen,n_bare_r5h0,true,0.421875,30,7,1,1
FreiburgBareHybrid,Zeuthen,n_bare_r5h1,true,0.421875,30,7,1,1
FreiburgBareHybrid,Toronto,n_bare_r0h0,true,0.46875,30,7,1,1
FreiburgBareHybrid,Toronto,n_bare_r0h1,true,0.46875,30,7,1,1
FreiburgBareHybrid,Toronto,n_bare_r1h0,true,0.21875,30,7,1,1
FreiburgBareHybrid,Toronto,n_bare_r1h1,true,0.21875,30,7,1,1
FreiburgBareHybrid,Toronto,n_bare_r2h0,true,0.46875,30,7,1,1
FreiburgBareHybrid,Toronto,n_bare_r3h0,true,0.21875,30,7,1,1
FreiburgBareHybrid,Toronto,n_bare_r3h1,true,0.21875,30,7,1,1
FreiburgBareHybrid,Toronto,n_bare_r3h2,true,0.21875,30,7,1,1
FreiburgBareHybrid,Toronto,n_bare_r3h3,true,0.21875,30,7,1,1
FreiburgBareHybrid,Toronto,n_bare_r4h0,true,0.46875,30,7,1,1
FreiburgBareHybrid,Toronto,n_bare_r4h1,true,0.46875,30,7,1,1
FreiburgBareHybrid,Toronto,n_bare_r5h0,true,0.46875,30,7,1,1
FreiburgBareHybrid,Toronto,n_bare_r5h1,true,0.46875,30,7,1,1
FreiburgBareHybrid,Scandinavia,n_bare_r1h0,true,0.25,30,7,1,1
FreiburgBareHybrid,Scandinavia,n_bare_r1h1,true,0.25,30,7,1,1
FreiburgBareHybrid,Scandinavia,n_bare_r3h0,true,0.25,30,7,1,1
FreiburgBareHybrid,Scandinavia,n_bare_r3h1,true,0.25,30,7,1,1
FreiburgBareHybrid,Scandinavia,n_bare_r3h2,true,0.25,30,7,1,1
FreiburgBareHybrid,Scandinavia,n_bare_r3h3,true,0.25,30,7,1,1
FreiburgBareHybrid,Dortmund,n_bare_r2h0,true,0.28125,30,7,1,1
FreiburgBareHybrid,Dortmund,n_bare_r5h0,true,0.140625,30,7,1,1
FreiburgBareHybrid,Dortmund,n_bare_r5h1,true,0.140625,30,7,1,1
FreiburgBareHybrid,Hamburg,n_bare_r2h0,true,0.25,30,7,1,1
FreiburgBareHybrid,Hamburg,n_bare_r4h0,true,0.25,30,7,1,1
FreiburgBareHybrid,Hamburg,n_bare_r4h1,true,0.25,30,7,1,1
Toronto,Vancouver,n_complete_r1h0,false,100,30,7,1,1
Toronto,Vancouver,n_complete_r1h1,false,100,30,7,1,1
Toronto,Vancouver,n_complete_r2h0,true,0.46,30,7,1,1
Toronto,Vancouver,n_complete_r4h0,true,0.46,30,7,1,1
Toronto,Vancouver,n_complete_r4h1,true,0.46,30,7,1,1
Toronto,Vancouver,n_complete_r5h0,true,0.46,30,7,1,1
Toronto,Vancouver,n_complete_r5h1,true,0.46,30,7,1,1
Toronto,Prague,n_complete_r2h0,true,0.54,30,7,1,1
Toronto,Prague,n_complete_r4h0,true,0.54,30,7,1,1
Toronto,Prague,n_complete_r4h1,true,0.54,30,7,1,1
Toronto,Valencia,n_complete_r5h0,true,0.54,30,7,1,1
Toronto,Valencia,n_complete_r5h1,true,0.54,30,7,1,1
Toronto,Valencia,n_complete_r0h0,true,0.54,30,7,1,1
Toronto,Valencia,n_complete_r0h1,true,0.54,30,7,1,1
Freiburg,Australia,n_complete_r1h0,true,0.5,30,7,1,1
Freiburg,Australia,n_complete_r1h1,true,0.5,30,7,1,1
Freiburg,Australia,n_complete_r4h0,true,0.5,30,7,1,1
Freiburg,Australia,n_complete_r4h1,true,0.5,30,7,1,1
Toronto,Vancouver,n_r0_modules,true,1,30,7,1,1
Toronto,Vancouver,n_r3_modules,true,1,30,7,1,1
Scandinavia,Valencia,n_r1_modules,true,1,30,7,1,1
Scandinavia,Valencia,n_r3_modules,true,1,30,7,1,1
Prague,Valencia,n_r2_modules,true,1,30,7,1,1
Prague,Valencia,n_r4_modules,true,1,30,7,1,1
Zeuthen,Hamburg,n_r1_modules,true,1,30,7,1,1
Zeuthen,Hamburg,n_r3_modules,true,1,30,7,1,1
Zeuthen,Hamburg,n_r0_modules,true,0.4706,30,7,1,1
Zeuthen,Hamburg,n_r5_modules,true,0.64,30,7,1,1
Zeuthen,Freiburg,n_r0_modules,true,0.5294,30,7,1,1
Zeuthen,Freiburg,n_r5_modules,true,0.36,30,7,1,1
Dortmund,Freiburg,n_r2_modules,true,1,30,7,1,1
Dortmund,Freiburg,n_r5_modules,true,1,30,7,1,1
Australia,Freiburg,n_r1_modules,true,1,30,7,1,1
Australia,Freiburg,n_r4_modules,true,1,30,7,1,1
